<svg width="159" height="43" viewBox="0 0 159 43" fill="none" xmlns="http://www.w3.org/2000/svg">
<g clip-path="url(#clip0)">
<path d="M37.7944 43C36.3299 43 35.1148 41.8185 35.1148 40.3261V22.9146C35.1148 18.1576 31.22 14.2711 26.4528 14.2711C21.6856 14.2711 17.7908 18.1576 17.7908 22.9457V40.3572C17.7908 41.8185 16.6068 43.0311 15.1112 43.0311C13.6156 43.0311 12.4316 41.8496 12.4316 40.3572V22.9457C12.4628 15.235 18.7256 8.95441 26.4528 8.95441C34.18 8.95441 40.4428 15.235 40.4428 22.9146V40.3261C40.4428 41.8185 39.2588 43 37.7944 43Z" fill="#E52B50"/>
<path d="M120.613 43C119.928 43 119.367 42.4404 119.367 41.7563V24.3449C119.367 18.8106 114.849 14.2712 109.271 14.2712C103.725 14.2712 99.1762 18.7795 99.1762 24.3449V41.7563C99.1762 42.4404 98.6154 43 97.9299 43C97.2444 43 96.6836 42.4404 96.6836 41.7563V24.3449C96.6836 17.4114 102.323 11.7838 109.271 11.7838C116.22 11.7838 121.859 17.4114 121.859 24.3449V41.7563C121.859 42.4404 121.299 43 120.613 43Z" fill="#E52B50"/>
<path d="M2.6796 43C1.21517 43 0 41.8185 0 40.3261V11.6283C0 10.167 1.18401 8.95441 2.6796 8.95441C4.17519 8.95441 5.3592 10.1359 5.3592 11.6283V40.3572C5.32804 41.8185 4.14403 43 2.6796 43Z" fill="#E52B50"/>
<path d="M144.044 43C137.563 43.0622 131.799 39.2068 129.4 33.2061C128.683 31.4027 128.309 29.5061 128.278 27.5474C128.278 25.8684 128.528 24.2205 129.026 22.6349C131.083 16.2299 137.003 11.8771 143.764 11.8149C149.84 11.7527 155.417 15.2661 158.034 20.7383C158.315 21.3601 158.065 22.1063 157.442 22.3861C156.819 22.6659 156.071 22.4172 155.791 21.7954C153.61 17.1938 148.905 14.2712 143.795 14.3022C138.093 14.3644 133.108 18.0022 131.394 23.4122C130.958 24.7491 130.74 26.1171 130.771 27.5163C130.771 29.1641 131.114 30.7809 131.706 32.2733C133.731 37.3102 138.561 40.5437 144.013 40.5127C149.84 40.4505 155.012 36.5329 156.57 30.9364C156.757 30.2834 157.442 29.8792 158.097 30.0658C158.751 30.2523 159.156 30.9364 158.969 31.5893C157.1 38.2429 150.961 42.9378 144.044 43Z" fill="#E52B50"/>
<path d="M130.553 33.9834C130.055 33.9834 129.618 33.7036 129.4 33.2372C129.12 32.6153 129.4 31.8691 130.055 31.5893L156.414 20.0853C157.038 19.8055 157.785 20.0853 158.066 20.7383C158.346 21.3601 158.066 22.1063 157.411 22.3861L131.052 33.8901C130.896 33.9523 130.709 33.9834 130.553 33.9834Z" fill="#E52B50"/>
<path d="M68.7655 43C56.8943 43 47.2041 33.3615 47.2041 21.4844C47.2041 18.2198 47.9207 15.0484 49.354 12.1258C49.6656 11.504 50.4134 11.2552 51.0054 11.5351C51.6286 11.846 51.8778 12.5922 51.5974 13.1829C50.3511 15.7635 49.6968 18.5618 49.6968 21.4533C49.6968 31.9313 58.2341 40.4815 68.7655 40.4815C71.8814 40.4815 74.966 39.7043 77.7079 38.274C81.26 36.3774 84.1888 33.3615 85.9337 29.7238C87.18 27.1432 87.8343 24.3449 87.8343 21.4533C87.8343 10.9754 79.297 2.42515 68.7655 2.42515C65.6497 2.42515 62.5651 3.20245 59.8232 4.63267C59.2312 4.94359 58.4522 4.72595 58.1406 4.1352C57.829 3.54446 58.0471 2.76716 58.6391 2.45624C61.7238 0.808376 65.2135 -0.0621948 68.7344 -0.0621948C80.6056 -0.0621948 90.2958 9.57627 90.2958 21.4533C90.2958 24.718 89.5792 27.8894 88.1459 30.812C86.183 34.885 82.849 38.3362 78.8296 40.4505C75.7761 42.1294 72.2864 43 68.7655 43Z" fill="#E52B50"/>
<path d="M68.7658 23.4432C69.8327 23.4432 70.6976 22.5802 70.6976 21.5155C70.6976 20.4509 69.8327 19.5878 68.7658 19.5878C67.6989 19.5878 66.834 20.4509 66.834 21.5155C66.834 22.5802 67.6989 23.4432 68.7658 23.4432Z" fill="#E52B50"/>
</g>
<defs>
<clipPath id="clip0">
<rect width="159" height="43" fill="white"/>
</clipPath>
</defs>
</svg>
